(module BlueNRG-M2SP (layer F.Cu) (tedit 5FB90C9B)
  (fp_text reference REF** (at 0 1.7) (layer F.SilkS)
    (effects (font (size 1 1) (thickness 0.15)))
  )
  (fp_text value BlueNRG-M2SP (at 4.5 2) (layer F.Fab)
    (effects (font (size 1 1) (thickness 0.15)))
  )
  (fp_line (start 12.5 -1) (end 12.5 -7.75) (layer F.SilkS) (width 0.12))
  (fp_line (start 12.5 -7.75) (end 1 -7.75) (layer F.SilkS) (width 0.12))
  (fp_line (start 1 -7.75) (end 1 -1) (layer F.SilkS) (width 0.12))
  (fp_line (start 1 -1) (end 12.5 -1) (layer F.SilkS) (width 0.12))
  (fp_line (start 0 0) (end 13.5 0) (layer Cmts.User) (width 0.12))
  (fp_line (start 13.5 0) (end 13.5 -11.5) (layer Cmts.User) (width 0.12))
  (fp_line (start 0 0) (end 0 -11.5) (layer Cmts.User) (width 0.12))
  (fp_line (start 0 -11.5) (end 13.5 -11.5) (layer Cmts.User) (width 0.12))
  (pad 20 smd rect (at 13.5 -7.31) (size 1.2 1) (layers F.Cu F.Paste F.Mask))
  (pad 19 smd rect (at 13.5 -6.04) (size 1.2 1) (layers F.Cu F.Paste F.Mask))
  (pad 18 smd rect (at 13.5 -4.77) (size 1.2 1) (layers F.Cu F.Paste F.Mask))
  (pad 17 smd rect (at 13.5 -3.5) (size 1.2 1) (layers F.Cu F.Paste F.Mask))
  (pad 16 smd rect (at 13.5 -2.27) (size 1.2 1) (layers F.Cu F.Paste F.Mask))
  (pad 15 smd rect (at 13.5 -1) (size 1.2 1) (layers F.Cu F.Paste F.Mask))
  (pad 14 smd rect (at 11.62 0) (size 1 1.2) (layers F.Cu F.Paste F.Mask))
  (pad 13 smd rect (at 10.35 0) (size 1 1.2) (layers F.Cu F.Paste F.Mask))
  (pad 12 smd rect (at 9.08 0) (size 1 1.2) (layers F.Cu F.Paste F.Mask))
  (pad 11 smd rect (at 7.81 0) (size 1 1.2) (layers F.Cu F.Paste F.Mask))
  (pad 10 smd rect (at 6.54 0) (size 1 1.2) (layers F.Cu F.Paste F.Mask))
  (pad 9 smd rect (at 5.27 0) (size 1 1.2) (layers F.Cu F.Paste F.Mask))
  (pad 8 smd rect (at 4 0) (size 1 1.2) (layers F.Cu F.Paste F.Mask))
  (pad 7 smd rect (at 2.73 0) (size 1 1.2) (layers F.Cu F.Paste F.Mask))
  (pad 6 smd rect (at 1.46 0) (size 1 1.2) (layers F.Cu F.Paste F.Mask))
  (pad 5 smd rect (at 0 -1) (size 1.2 1) (layers F.Cu F.Paste F.Mask))
  (pad 4 smd rect (at 0 -2.27) (size 1.2 1) (layers F.Cu F.Paste F.Mask))
  (pad 3 smd rect (at 0 -3.54) (size 1.2 1) (layers F.Cu F.Paste F.Mask))
  (pad 2 smd rect (at 0 -4.81) (size 1.2 1) (layers F.Cu F.Paste F.Mask))
  (pad 1 smd rect (at 0 -6.08) (size 1.2 1) (layers F.Cu F.Paste F.Mask))
  (model ${KIPRJMOD}/../kicad-5---symbol-library/kicad-5---footprints-library.3dshapes/BlueNRG-M2SP.wrl
    (at (xyz 0 0 0))
    (scale (xyz 1 1 1))
    (rotate (xyz 0 0 0))
  )
)
